{
	"site_title": "מאי בייבי ספא שחיית תינוקות",
	"phone": "09-372-0077",
	"call_us": "התקשרו וקבלו שיעור מתנה!",

	"home": "דף בית",
	"about_us": "עלינו",
	"gallery": "גלריה",
	"blog": "בלוג",
	"testimonials": "לקוחות מספרים",
	"contact_us": "צור קשר",

	"gallery_title": "תמונות משיעורים אחרונים",
	"gallery_link": "גלריית תמונות",
	"testimonials_link": "קרא עוד",

	"video_section_title": "הסרטונים שלנו ב Youtube",
	"youtube_channel_link": "עוד סרטונים",

	"testimonials_title": "לקוחות מספרים",

	"benefits_title": "יתרונות שחיית פעוטות:",

	"footer_article_header": "מאי בייבי ספא שחיית תינוקות ופעוטות",
	"footer_article_paragraph": "רעננה ולב השרון",

	"copyright_holder": "Copyright &copy; 2017. by <a href=\"http://way2cu.com\" target=\"_blank\">Way2CU</a>.",
    "copyright_text": "All rights reserved."
}